%!PS-Adobe-3.0 EPSF-3.0
%%Title: plot1000.eps
%%Creator: matplotlib version 0.99.1.1, http://matplotlib.sourceforge.net/
%%CreationDate: Mon Sep  9 15:23:19 2013
%%Orientation: portrait
%%BoundingBox: 13 175 598 616
%%EndComments
%%BeginProlog
/mpldict 8 dict def
mpldict begin
/m { moveto } bind def
/l { lineto } bind def
/r { rlineto } bind def
/c { curveto } bind def
/cl { closepath } bind def
/box {
m
1 index 0 r
0 exch r
neg 0 r
cl
} bind def
/clipbox {
box
clip
newpath
} bind def
%!PS-Adobe-3.0 Resource-Font
%%Title: DejaVu Sans
%%Copyright: Copyright (c) 2003 by Bitstream, Inc. All Rights Reserved. Copyright (c) 2006 by Tavmjong Bah. All Rights Reserved. DejaVu changes are in public domain 
%%Creator: Converted from TrueType by PPR
25 dict begin
/_d{bind def}bind def
/_m{moveto}_d
/_l{lineto}_d
/_cl{closepath eofill}_d
/_c{curveto}_d
/_sc{7 -1 roll{setcachedevice}{pop pop pop pop pop pop}ifelse}_d
/_e{exec}_d
/FontName /DejaVuSans def
/PaintType 0 def
/FontMatrix[.001 0 0 .001 0 0]def
/FontBBox[-1020 -349 1681 1167]def
/FontType 3 def
/Encoding StandardEncoding def
/FontInfo 10 dict dup begin
/FamilyName (DejaVu Sans) def
/FullName (DejaVu Sans) def
/Notice (Copyright (c) 2003 by Bitstream, Inc. All Rights Reserved. Copyright (c) 2006 by Tavmjong Bah. All Rights Reserved. DejaVu changes are in public domain ) def
/Weight (Book) def
/Version (Version 2.30) def
/ItalicAngle 0.0 def
/isFixedPitch false def
/UnderlinePosition -130 def
/UnderlineThickness 90 def
end readonly def
/CharStrings 28 dict dup begin
/space{318 0 0 0 0 0 _sc
}_d
/period{318 0 107 0 210 124 _sc
107 124 _m
210 124 _l
210 0 _l
107 0 _l
107 124 _l
_cl}_d
/zero{636 0 66 -13 570 742 _sc
318 664 _m
267 664 229 639 203 589 _c
177 539 165 464 165 364 _c
165 264 177 189 203 139 _c
229 89 267 64 318 64 _c
369 64 407 89 433 139 _c
458 189 471 264 471 364 _c
471 464 458 539 433 589 _c
407 639 369 664 318 664 _c
318 742 _m
399 742 461 709 505 645 _c
548 580 570 486 570 364 _c
570 241 548 147 505 83 _c
461 19 399 -13 318 -13 _c
236 -13 173 19 130 83 _c
87 147 66 241 66 364 _c
66 486 87 580 130 645 _c
173 709 236 742 318 742 _c
_cl}_d
/one{636 0 110 0 544 729 _sc
124 83 _m
285 83 _l
285 639 _l
110 604 _l
110 694 _l
284 729 _l
383 729 _l
383 83 _l
544 83 _l
544 0 _l
124 0 _l
124 83 _l
_cl}_d
/two{{636 0 73 0 536 742 _sc
192 83 _m
536 83 _l
536 0 _l
73 0 _l
73 83 _l
110 121 161 173 226 239 _c
290 304 331 346 348 365 _c
380 400 402 430 414 455 _c
426 479 433 504 433 528 _c
433 566 419 598 392 622 _c
365 646 330 659 286 659 _c
255 659 222 653 188 643 _c
154 632 117 616 78 594 _c
78 694 _l
118 710 155 722 189 730 _c
223 738 255 742 284 742 _c
359 742 419 723 464 685 _c
509 647 532 597 532 534 _c
532 504 526 475 515 449 _c
504 422 484 390 454 354 _c
446 344 420 317 376 272 _c
332 227 271 164 192 83 _c
_cl}_e}_d
/three{{636 0 76 -13 556 742 _sc
406 393 _m
453 383 490 362 516 330 _c
542 298 556 258 556 212 _c
556 140 531 84 482 45 _c
432 6 362 -13 271 -13 _c
240 -13 208 -10 176 -4 _c
144 1 110 10 76 22 _c
76 117 _l
103 101 133 89 166 81 _c
198 73 232 69 268 69 _c
330 69 377 81 409 105 _c
441 129 458 165 458 212 _c
458 254 443 288 413 312 _c
383 336 341 349 287 349 _c
202 349 _l
202 430 _l
291 430 _l
339 430 376 439 402 459 _c
428 478 441 506 441 543 _c
441 580 427 609 401 629 _c
374 649 336 659 287 659 _c
260 659 231 656 200 650 _c
169 644 135 635 98 623 _c
98 711 _l
135 721 170 729 203 734 _c
235 739 266 742 296 742 _c
}_e{370 742 429 725 473 691 _c
517 657 539 611 539 553 _c
539 513 527 479 504 451 _c
481 423 448 403 406 393 _c
_cl}_e}_d
/four{636 0 49 0 580 729 _sc
378 643 _m
129 254 _l
378 254 _l
378 643 _l
352 729 _m
476 729 _l
476 254 _l
580 254 _l
580 172 _l
476 172 _l
476 0 _l
378 0 _l
378 172 _l
49 172 _l
49 267 _l
352 729 _l
_cl}_d
/five{{636 0 77 -13 549 729 _sc
108 729 _m
495 729 _l
495 646 _l
198 646 _l
198 467 _l
212 472 227 476 241 478 _c
255 480 270 482 284 482 _c
365 482 429 459 477 415 _c
525 370 549 310 549 234 _c
549 155 524 94 475 51 _c
426 8 357 -13 269 -13 _c
238 -13 207 -10 175 -6 _c
143 -1 111 6 77 17 _c
77 116 _l
106 100 136 88 168 80 _c
199 72 232 69 267 69 _c
323 69 368 83 401 113 _c
433 143 450 183 450 234 _c
450 284 433 324 401 354 _c
368 384 323 399 267 399 _c
241 399 214 396 188 390 _c
162 384 135 375 108 363 _c
108 729 _l
_cl}_e}_d
/six{{636 0 70 -13 573 742 _sc
330 404 _m
286 404 251 388 225 358 _c
199 328 186 286 186 234 _c
186 181 199 139 225 109 _c
251 79 286 64 330 64 _c
374 64 409 79 435 109 _c
461 139 474 181 474 234 _c
474 286 461 328 435 358 _c
409 388 374 404 330 404 _c
526 713 _m
526 623 _l
501 635 476 644 451 650 _c
425 656 400 659 376 659 _c
310 659 260 637 226 593 _c
192 549 172 482 168 394 _c
187 422 211 444 240 459 _c
269 474 301 482 336 482 _c
409 482 467 459 509 415 _c
551 371 573 310 573 234 _c
573 159 550 99 506 54 _c
462 9 403 -13 330 -13 _c
246 -13 181 19 137 83 _c
92 147 70 241 70 364 _c
70 479 97 571 152 639 _c
206 707 280 742 372 742 _c
}_e{396 742 421 739 447 735 _c
472 730 498 723 526 713 _c
_cl}_e}_d
/seven{636 0 82 0 551 729 _sc
82 729 _m
551 729 _l
551 687 _l
286 0 _l
183 0 _l
432 646 _l
82 646 _l
82 729 _l
_cl}_d
/eight{{636 0 68 -13 568 742 _sc
318 346 _m
271 346 234 333 207 308 _c
180 283 167 249 167 205 _c
167 161 180 126 207 101 _c
234 76 271 64 318 64 _c
364 64 401 76 428 102 _c
455 127 469 161 469 205 _c
469 249 455 283 429 308 _c
402 333 365 346 318 346 _c
219 388 _m
177 398 144 418 120 447 _c
96 476 85 511 85 553 _c
85 611 105 657 147 691 _c
188 725 245 742 318 742 _c
390 742 447 725 489 691 _c
530 657 551 611 551 553 _c
551 511 539 476 515 447 _c
491 418 459 398 417 388 _c
464 377 501 355 528 323 _c
554 291 568 251 568 205 _c
568 134 546 80 503 43 _c
459 5 398 -13 318 -13 _c
237 -13 175 5 132 43 _c
89 80 68 134 68 205 _c
68 251 81 291 108 323 _c
134 355 171 377 219 388 _c
}_e{183 544 _m
183 506 194 476 218 455 _c
242 434 275 424 318 424 _c
360 424 393 434 417 455 _c
441 476 453 506 453 544 _c
453 582 441 611 417 632 _c
393 653 360 664 318 664 _c
275 664 242 653 218 632 _c
194 611 183 582 183 544 _c
_cl}_e}_d
/A{684 0 8 0 676 729 _sc
342 632 _m
208 269 _l
476 269 _l
342 632 _l
286 729 _m
398 729 _l
676 0 _l
573 0 _l
507 187 _l
178 187 _l
112 0 _l
8 0 _l
286 729 _l
_cl}_d
/N{748 0 98 0 650 729 _sc
98 729 _m
231 729 _l
554 119 _l
554 729 _l
650 729 _l
650 0 _l
517 0 _l
194 610 _l
194 0 _l
98 0 _l
98 729 _l
_cl}_d
/S{{635 0 66 -13 579 742 _sc
535 705 _m
535 609 _l
497 627 462 640 429 649 _c
395 657 363 662 333 662 _c
279 662 237 651 208 631 _c
179 610 165 580 165 542 _c
165 510 174 485 194 469 _c
213 452 250 439 304 429 _c
364 417 _l
437 403 491 378 526 343 _c
561 307 579 260 579 201 _c
579 130 555 77 508 41 _c
460 5 391 -13 300 -13 _c
265 -13 228 -9 189 -2 _c
150 5 110 16 69 32 _c
69 134 _l
109 111 148 94 186 83 _c
224 71 262 66 300 66 _c
356 66 399 77 430 99 _c
460 121 476 152 476 194 _c
476 230 465 258 443 278 _c
421 298 385 313 335 323 _c
275 335 _l
201 349 148 372 115 404 _c
82 435 66 478 66 534 _c
66 598 88 649 134 686 _c
179 723 242 742 322 742 _c
}_e{356 742 390 739 426 733 _c
461 727 497 717 535 705 _c
_cl}_e}_d
/a{{613 0 60 -13 522 560 _sc
343 275 _m
270 275 220 266 192 250 _c
164 233 150 205 150 165 _c
150 133 160 107 181 89 _c
202 70 231 61 267 61 _c
317 61 357 78 387 114 _c
417 149 432 196 432 255 _c
432 275 _l
343 275 _l
522 312 _m
522 0 _l
432 0 _l
432 83 _l
411 49 385 25 355 10 _c
325 -5 287 -13 243 -13 _c
187 -13 142 2 109 33 _c
76 64 60 106 60 159 _c
60 220 80 266 122 298 _c
163 329 224 345 306 345 _c
432 345 _l
432 354 _l
432 395 418 427 391 450 _c
364 472 326 484 277 484 _c
245 484 215 480 185 472 _c
155 464 127 453 100 439 _c
100 522 _l
}_e{132 534 164 544 195 550 _c
226 556 256 560 286 560 _c
365 560 424 539 463 498 _c
502 457 522 395 522 312 _c
_cl}_e}_d
/c{{550 0 55 -13 488 560 _sc
488 526 _m
488 442 _l
462 456 437 466 411 473 _c
385 480 360 484 334 484 _c
276 484 230 465 198 428 _c
166 391 150 339 150 273 _c
150 206 166 154 198 117 _c
230 80 276 62 334 62 _c
360 62 385 65 411 72 _c
437 79 462 90 488 104 _c
488 21 _l
462 9 436 0 410 -5 _c
383 -10 354 -13 324 -13 _c
242 -13 176 12 128 64 _c
79 115 55 185 55 273 _c
55 362 79 432 128 483 _c
177 534 244 560 330 560 _c
358 560 385 557 411 551 _c
437 545 463 537 488 526 _c
_cl}_e}_d
/e{{615 0 55 -13 562 560 _sc
562 296 _m
562 252 _l
149 252 _l
153 190 171 142 205 110 _c
238 78 284 62 344 62 _c
378 62 412 66 444 74 _c
476 82 509 95 541 113 _c
541 28 _l
509 14 476 3 442 -3 _c
408 -9 373 -13 339 -13 _c
251 -13 182 12 131 62 _c
80 112 55 181 55 268 _c
55 357 79 428 127 481 _c
175 533 241 560 323 560 _c
397 560 455 536 498 489 _c
540 441 562 377 562 296 _c
472 322 _m
471 371 457 410 431 440 _c
404 469 368 484 324 484 _c
274 484 234 469 204 441 _c
174 413 156 373 152 322 _c
472 322 _l
_cl}_e}_d
/i{278 0 94 0 184 760 _sc
94 547 _m
184 547 _l
184 0 _l
94 0 _l
94 547 _l
94 760 _m
184 760 _l
184 646 _l
94 646 _l
94 760 _l
_cl}_d
/l{278 0 94 0 184 760 _sc
94 760 _m
184 760 _l
184 0 _l
94 0 _l
94 760 _l
_cl}_d
/m{{974 0 91 0 889 560 _sc
520 442 _m
542 482 569 511 600 531 _c
631 550 668 560 711 560 _c
767 560 811 540 842 500 _c
873 460 889 403 889 330 _c
889 0 _l
799 0 _l
799 327 _l
799 379 789 418 771 444 _c
752 469 724 482 686 482 _c
639 482 602 466 575 435 _c
548 404 535 362 535 309 _c
535 0 _l
445 0 _l
445 327 _l
445 379 435 418 417 444 _c
398 469 369 482 331 482 _c
285 482 248 466 221 435 _c
194 404 181 362 181 309 _c
181 0 _l
91 0 _l
91 547 _l
181 547 _l
181 462 _l
201 495 226 520 255 536 _c
283 552 317 560 357 560 _c
397 560 430 550 458 530 _c
486 510 506 480 520 442 _c
}_e{_cl}_e}_d
/n{634 0 91 0 549 560 _sc
549 330 _m
549 0 _l
459 0 _l
459 327 _l
459 379 448 417 428 443 _c
408 469 378 482 338 482 _c
289 482 251 466 223 435 _c
195 404 181 362 181 309 _c
181 0 _l
91 0 _l
91 547 _l
181 547 _l
181 462 _l
202 494 227 519 257 535 _c
286 551 320 560 358 560 _c
420 560 468 540 500 501 _c
532 462 549 405 549 330 _c
_cl}_d
/o{612 0 55 -13 557 560 _sc
306 484 _m
258 484 220 465 192 427 _c
164 389 150 338 150 273 _c
150 207 163 156 191 118 _c
219 80 257 62 306 62 _c
354 62 392 80 420 118 _c
448 156 462 207 462 273 _c
462 337 448 389 420 427 _c
392 465 354 484 306 484 _c
306 560 _m
384 560 445 534 490 484 _c
534 433 557 363 557 273 _c
557 183 534 113 490 63 _c
445 12 384 -13 306 -13 _c
227 -13 165 12 121 63 _c
77 113 55 183 55 273 _c
55 363 77 433 121 484 _c
165 534 227 560 306 560 _c
_cl}_d
/r{411 0 91 0 411 560 _sc
411 463 _m
401 469 390 473 378 476 _c
366 478 353 480 339 480 _c
288 480 249 463 222 430 _c
194 397 181 350 181 288 _c
181 0 _l
91 0 _l
91 547 _l
181 547 _l
181 462 _l
199 495 224 520 254 536 _c
284 552 321 560 365 560 _c
371 560 378 559 386 559 _c
393 558 401 557 411 555 _c
411 463 _l
_cl}_d
/t{392 0 27 0 368 702 _sc
183 702 _m
183 547 _l
368 547 _l
368 477 _l
183 477 _l
183 180 _l
183 135 189 106 201 94 _c
213 81 238 75 276 75 _c
368 75 _l
368 0 _l
276 0 _l
206 0 158 13 132 39 _c
106 65 93 112 93 180 _c
93 477 _l
27 477 _l
27 547 _l
93 547 _l
93 702 _l
183 702 _l
_cl}_d
/u{634 0 85 -13 543 560 _sc
85 216 _m
85 547 _l
175 547 _l
175 219 _l
175 167 185 129 205 103 _c
225 77 255 64 296 64 _c
344 64 383 79 411 110 _c
439 141 453 183 453 237 _c
453 547 _l
543 547 _l
543 0 _l
453 0 _l
453 84 _l
431 50 405 26 377 10 _c
348 -5 315 -13 277 -13 _c
214 -13 166 6 134 45 _c
101 83 85 140 85 216 _c
_cl}_d
/v{592 0 30 0 562 547 _sc
30 547 _m
125 547 _l
296 88 _l
467 547 _l
562 547 _l
357 0 _l
235 0 _l
30 547 _l
_cl}_d
/x{592 0 29 0 559 547 _sc
549 547 _m
351 281 _l
559 0 _l
453 0 _l
294 215 _l
135 0 _l
29 0 _l
241 286 _l
47 547 _l
153 547 _l
298 352 _l
443 547 _l
549 547 _l
_cl}_d
/y{592 0 30 -207 562 547 _sc
322 -50 _m
296 -114 271 -157 247 -177 _c
223 -197 191 -207 151 -207 _c
79 -207 _l
79 -132 _l
132 -132 _l
156 -132 175 -126 189 -114 _c
203 -102 218 -75 235 -31 _c
251 9 _l
30 547 _l
125 547 _l
296 119 _l
467 547 _l
562 547 _l
322 -50 _l
_cl}_d
end readonly def

/BuildGlyph
 {exch begin
 CharStrings exch
 2 copy known not{pop /.notdef}if
 true 3 1 roll get exec
 end}_d

/BuildChar {
 1 index /Encoding get exch get
 1 index /BuildGlyph get exec
}_d

FontName currentdict end definefont pop
end
%%EndProlog
mpldict begin
13.5 175.5 translate
585 441 0 0 clipbox
1.000 setlinewidth
1 setlinejoin
2 setlinecap
[] 0 setdash
1.000 setgray
gsave
0 0 m
585 0 l
585 441 l
0 441 l
0 0 l
gsave
fill
grestore
stroke
grestore
gsave
73.125 44.1 m
526.5 44.1 l
526.5 396.9 l
73.125 396.9 l
73.125 44.1 l
fill
grestore
0.500 setlinewidth
0 setlinecap
0.000 0.000 1.000 setrgbcolor
gsave
453.4 352.8 73.12 44.1 clipbox
/o {
gsave
newpath
translate
-3 -3 m
3 3 l
-3 3 m
3 -3 l
stroke
grestore
} bind def
73.125 44.1 o
73.5779 48.6064 o
74.0308 53.063 o
74.4838 57.4703 o
74.9367 61.8288 o
75.3896 66.1389 o
75.8425 70.4011 o
76.2955 74.6161 o
76.7484 78.7841 o
77.2013 82.9057 o
77.6542 86.9813 o
78.1071 91.0114 o
78.5601 94.9964 o
79.013 98.9367 o
79.4659 102.833 o
79.9188 106.686 o
80.3717 110.495 o
80.8247 114.261 o
81.2776 117.985 o
81.7305 121.667 o
82.1834 125.307 o
82.6364 128.906 o
83.0893 132.464 o
83.5422 135.982 o
83.9951 139.46 o
84.448 142.899 o
84.901 146.298 o
85.3539 149.658 o
85.8068 152.98 o
86.2597 156.264 o
86.7126 159.51 o
87.1656 162.719 o
87.6185 165.892 o
88.0714 169.027 o
88.5243 172.127 o
88.9773 175.19 o
89.4302 178.218 o
89.8831 181.212 o
90.336 184.17 o
90.7889 187.094 o
91.2419 189.983 o
91.6948 192.839 o
92.1477 195.662 o
92.6006 198.452 o
93.0536 201.209 o
93.5065 203.933 o
93.9594 206.626 o
94.4123 209.287 o
94.8652 211.915 o
95.3182 214.513 o
95.7711 217.081 o
96.224 219.617 o
96.677 222.124 o
97.1299 224.601 o
97.5828 227.047 o
98.0357 229.465 o
98.4887 231.854 o
98.9416 234.213 o
99.3945 236.545 o
99.8474 238.848 o
100.3 241.123 o
100.753 243.371 o
101.206 245.591 o
101.659 247.784 o
102.112 249.951 o
102.565 252.091 o
103.018 254.204 o
103.471 256.292 o
103.924 258.353 o
104.377 260.39 o
104.83 262.401 o
105.282 264.387 o
105.735 266.348 o
106.188 268.285 o
106.641 270.198 o
107.094 272.086 o
107.547 273.951 o
108 275.792 o
108.453 277.61 o
108.906 279.406 o
109.359 281.177 o
109.812 282.926 o
110.265 284.654 o
110.718 286.359 o
111.17 288.042 o
111.623 289.703 o
112.076 291.342 o
112.529 292.961 o
112.982 294.558 o
113.435 296.134 o
113.888 297.69 o
114.341 299.225 o
114.794 300.74 o
115.247 302.235 o
115.7 303.71 o
116.153 305.165 o
116.606 306.601 o
117.058 308.018 o
117.511 309.415 o
117.964 310.794 o
118.417 312.154 o
118.87 313.495 o
119.323 314.818 o
119.776 316.123 o
120.229 317.41 o
120.682 318.679 o
121.135 319.931 o
121.588 321.165 o
122.041 322.382 o
122.493 323.581 o
122.946 324.764 o
123.399 325.93 o
123.852 327.079 o
124.305 328.212 o
124.758 329.329 o
125.211 330.43 o
125.664 331.515 o
126.117 332.584 o
126.57 333.636 o
127.023 334.674 o
127.476 335.697 o
127.929 336.704 o
128.381 337.696 o
128.834 338.674 o
129.287 339.637 o
129.74 340.585 o
130.193 341.518 o
130.646 342.438 o
131.099 343.343 o
131.552 344.234 o
132.005 345.111 o
132.458 345.975 o
132.911 346.825 o
133.364 347.662 o
133.816 348.485 o
134.269 349.295 o
134.722 350.092 o
135.175 350.876 o
135.628 351.647 o
136.081 352.406 o
136.534 353.152 o
136.987 353.886 o
137.44 354.607 o
137.893 355.316 o
138.346 356.014 o
138.799 356.699 o
139.252 357.372 o
139.704 358.034 o
140.157 358.684 o
140.61 359.323 o
141.063 359.95 o
141.516 360.566 o
141.969 361.171 o
142.422 361.765 o
142.875 362.348 o
143.328 362.92 o
143.781 363.482 o
144.234 364.033 o
144.687 364.573 o
145.14 365.103 o
145.592 365.623 o
146.045 366.132 o
146.498 366.632 o
146.951 367.122 o
147.404 367.601 o
147.857 368.071 o
148.31 368.531 o
148.763 368.982 o
149.216 369.423 o
149.669 369.855 o
150.122 370.278 o
150.575 370.691 o
151.028 371.095 o
151.48 371.49 o
151.933 371.877 o
152.386 372.254 o
152.839 372.623 o
153.292 372.983 o
153.745 373.334 o
154.198 373.677 o
154.651 374.011 o
155.104 374.337 o
155.557 374.655 o
156.01 374.965 o
156.463 375.267 o
156.916 375.561 o
157.368 375.846 o
157.821 376.124 o
158.274 376.394 o
158.727 376.657 o
159.18 376.911 o
159.633 377.159 o
160.086 377.399 o
160.539 377.631 o
160.992 377.856 o
161.445 378.074 o
161.898 378.285 o
162.351 378.488 o
162.803 378.685 o
163.256 378.874 o
163.709 379.057 o
164.162 379.233 o
164.615 379.402 o
165.068 379.564 o
165.521 379.721 o
165.974 379.87 o
166.427 380.012 o
166.88 380.149 o
167.333 380.279 o
167.786 380.403 o
168.239 380.52 o
168.691 380.631 o
169.144 380.737 o
169.597 380.836 o
170.05 380.929 o
170.503 381.016 o
170.956 381.098 o
171.409 381.173 o
171.862 381.243 o
172.315 381.307 o
172.768 381.365 o
173.221 381.418 o
173.674 381.466 o
174.127 381.507 o
174.579 381.544 o
175.032 381.575 o
175.485 381.601 o
175.938 381.621 o
176.391 381.636 o
176.844 381.646 o
177.297 381.651 o
177.75 381.651 o
178.203 381.646 o
178.656 381.636 o
179.109 381.622 o
179.562 381.602 o
180.015 381.577 o
180.467 381.548 o
180.92 381.514 o
181.373 381.475 o
181.826 381.432 o
182.279 381.384 o
182.732 381.331 o
183.185 381.274 o
183.638 381.214 o
184.091 381.147 o
184.544 381.077 o
184.997 381.003 o
185.45 380.924 o
185.902 380.842 o
186.355 380.754 o
186.808 380.663 o
187.261 380.568 o
187.714 380.469 o
188.167 380.365 o
188.62 380.258 o
189.073 380.147 o
189.526 380.032 o
189.979 379.912 o
190.432 379.79 o
190.885 379.663 o
191.338 379.533 o
191.79 379.398 o
192.243 379.261 o
192.696 379.119 o
193.149 378.974 o
193.602 378.826 o
194.055 378.673 o
194.508 378.518 o
194.961 378.359 o
195.414 378.196 o
195.867 378.03 o
196.32 377.861 o
196.773 377.689 o
197.226 377.513 o
197.678 377.334 o
198.131 377.151 o
198.584 376.966 o
199.037 376.777 o
199.49 376.585 o
199.943 376.391 o
200.396 376.193 o
200.849 375.992 o
201.302 375.787 o
201.755 375.58 o
202.208 375.371 o
202.661 375.158 o
203.114 374.942 o
203.566 374.723 o
204.019 374.502 o
204.472 374.278 o
204.925 374.051 o
205.378 373.821 o
205.831 373.588 o
206.284 373.353 o
206.737 373.115 o
207.19 372.875 o
207.643 372.632 o
208.096 372.386 o
208.549 372.138 o
209.001 371.887 o
209.454 371.634 o
209.907 371.378 o
210.36 371.12 o
210.813 370.859 o
211.266 370.596 o
211.719 370.331 o
212.172 370.063 o
212.625 369.792 o
213.078 369.52 o
213.531 369.245 o
213.984 368.968 o
214.437 368.689 o
214.889 368.407 o
215.342 368.124 o
215.795 367.837 o
216.248 367.55 o
216.701 367.259 o
217.154 366.967 o
217.607 366.673 o
218.06 366.376 o
218.513 366.077 o
218.966 365.776 o
219.419 365.474 o
219.872 365.169 o
220.325 364.863 o
220.777 364.554 o
221.23 364.243 o
221.683 363.931 o
222.136 363.617 o
222.589 363.3 o
223.042 362.982 o
223.495 362.663 o
223.948 362.341 o
224.401 362.017 o
224.854 361.692 o
225.307 361.365 o
225.76 361.036 o
226.213 360.705 o
226.665 360.373 o
227.118 360.039 o
227.571 359.703 o
228.024 359.366 o
228.477 359.027 o
228.93 358.686 o
229.383 358.344 o
229.836 358 o
230.289 357.655 o
230.742 357.308 o
231.195 356.959 o
231.648 356.609 o
232.1 356.257 o
232.553 355.904 o
233.006 355.549 o
233.459 355.193 o
233.912 354.836 o
234.365 354.477 o
234.818 354.116 o
235.271 353.754 o
235.724 353.391 o
236.177 353.026 o
236.63 352.66 o
237.083 352.292 o
237.536 351.924 o
237.988 351.554 o
238.441 351.182 o
238.894 350.809 o
239.347 350.435 o
239.8 350.06 o
240.253 349.683 o
240.706 349.305 o
241.159 348.926 o
241.612 348.546 o
242.065 348.164 o
242.518 347.782 o
242.971 347.398 o
243.424 347.012 o
243.876 346.626 o
244.329 346.238 o
244.782 345.85 o
245.235 345.46 o
245.688 345.069 o
246.141 344.677 o
246.594 344.283 o
247.047 343.889 o
247.5 343.494 o
247.953 343.097 o
248.406 342.7 o
248.859 342.301 o
249.312 341.902 o
249.764 341.501 o
250.217 341.1 o
250.67 340.697 o
251.123 340.293 o
251.576 339.889 o
252.029 339.483 o
252.482 339.076 o
252.935 338.668 o
253.388 338.26 o
253.841 337.85 o
254.294 337.44 o
254.747 337.029 o
255.199 336.617 o
255.652 336.203 o
256.105 335.789 o
256.558 335.374 o
257.011 334.958 o
257.464 334.542 o
257.917 334.124 o
258.37 333.706 o
258.823 333.287 o
259.276 332.866 o
259.729 332.445 o
260.182 332.024 o
260.635 331.601 o
261.087 331.178 o
261.54 330.754 o
261.993 330.329 o
262.446 329.903 o
262.899 329.476 o
263.352 329.049 o
263.805 328.621 o
264.258 328.192 o
264.711 327.763 o
265.164 327.332 o
265.617 326.901 o
266.07 326.47 o
266.523 326.038 o
266.975 325.604 o
267.428 325.171 o
267.881 324.736 o
268.334 324.301 o
268.787 323.865 o
269.24 323.428 o
269.693 322.991 o
270.146 322.553 o
270.599 322.115 o
271.052 321.675 o
271.505 321.236 o
271.958 320.795 o
272.411 320.354 o
272.863 319.912 o
273.316 319.47 o
273.769 319.027 o
274.222 318.584 o
274.675 318.14 o
275.128 317.695 o
275.581 317.25 o
276.034 316.804 o
276.487 316.357 o
276.94 315.91 o
277.393 315.463 o
277.846 315.015 o
278.298 314.566 o
278.751 314.117 o
279.204 313.667 o
279.657 313.217 o
280.11 312.766 o
280.563 312.315 o
281.016 311.863 o
281.469 311.411 o
281.922 310.957 o
282.375 310.504 o
282.828 310.05 o
283.281 309.596 o
283.734 309.141 o
284.186 308.686 o
284.639 308.23 o
285.092 307.774 o
285.545 307.317 o
285.998 306.859 o
286.451 306.402 o
286.904 305.944 o
287.357 305.485 o
287.81 305.026 o
288.263 304.567 o
288.716 304.107 o
289.169 303.646 o
289.622 303.186 o
290.074 302.725 o
290.527 302.263 o
290.98 301.801 o
291.433 301.338 o
291.886 300.875 o
292.339 300.412 o
292.792 299.949 o
293.245 299.484 o
293.698 299.02 o
294.151 298.555 o
294.604 298.09 o
295.057 297.624 o
295.51 297.158 o
295.962 296.692 o
296.415 296.225 o
296.868 295.758 o
297.321 295.291 o
297.774 294.823 o
298.227 294.355 o
298.68 293.886 o
299.133 293.417 o
299.586 292.948 o
300.039 292.479 o
300.492 292.009 o
300.945 291.538 o
301.398 291.068 o
301.851 290.597 o
302.304 290.126 o
302.757 289.654 o
303.21 289.183 o
303.663 288.71 o
304.115 288.238 o
304.568 287.765 o
305.021 287.292 o
305.474 286.819 o
305.927 286.345 o
306.38 285.871 o
306.833 285.397 o
307.286 284.922 o
307.739 284.448 o
308.192 283.972 o
308.645 283.497 o
309.098 283.021 o
309.551 282.545 o
310.003 282.069 o
310.456 281.592 o
310.909 281.116 o
311.362 280.639 o
311.815 280.162 o
312.268 279.684 o
312.721 279.206 o
313.174 278.728 o
313.627 278.249 o
314.08 277.771 o
314.533 277.292 o
314.986 276.813 o
315.439 276.334 o
315.891 275.854 o
316.344 275.375 o
316.797 274.894 o
317.25 274.414 o
317.703 273.934 o
318.156 273.453 o
318.609 272.972 o
319.062 272.491 o
319.515 272.009 o
319.968 271.528 o
320.421 271.046 o
320.874 270.564 o
321.327 270.082 o
321.779 269.599 o
322.232 269.116 o
322.685 268.634 o
323.138 268.151 o
323.591 267.667 o
324.044 267.184 o
324.497 266.7 o
324.95 266.216 o
325.403 265.732 o
325.856 265.248 o
326.309 264.763 o
326.762 264.279 o
327.214 263.794 o
327.667 263.309 o
328.12 262.824 o
328.573 262.338 o
329.026 261.853 o
329.479 261.367 o
329.932 260.881 o
330.385 260.395 o
330.838 259.909 o
331.291 259.422 o
331.744 258.936 o
332.197 258.449 o
332.65 257.962 o
333.102 257.475 o
333.555 256.988 o
334.008 256.5 o
334.461 256.012 o
334.914 255.525 o
335.367 255.037 o
335.82 254.549 o
336.273 254.06 o
336.726 253.572 o
337.179 253.084 o
337.632 252.595 o
338.085 252.106 o
338.538 251.617 o
338.99 251.128 o
339.443 250.639 o
339.896 250.149 o
340.349 249.66 o
340.802 249.171 o
341.255 248.681 o
341.708 248.191 o
342.161 247.7 o
342.614 247.21 o
343.067 246.72 o
343.52 246.23 o
343.973 245.739 o
344.426 245.248 o
344.878 244.758 o
345.331 244.266 o
345.784 243.775 o
346.237 243.284 o
346.69 242.793 o
347.143 242.301 o
347.596 241.81 o
348.049 241.318 o
348.502 240.826 o
348.955 240.334 o
349.408 239.842 o
349.861 239.35 o
350.313 238.858 o
350.766 238.365 o
351.219 237.873 o
351.672 237.38 o
352.125 236.888 o
352.578 236.395 o
353.031 235.902 o
353.484 235.409 o
353.937 234.915 o
354.39 234.422 o
354.843 233.929 o
355.296 233.436 o
355.749 232.942 o
356.201 232.448 o
356.654 231.954 o
357.107 231.461 o
357.56 230.967 o
358.013 230.473 o
358.466 229.979 o
358.919 229.484 o
359.372 228.99 o
359.825 228.496 o
360.278 228.002 o
360.731 227.507 o
361.184 227.012 o
361.637 226.517 o
362.089 226.022 o
362.542 225.527 o
362.995 225.032 o
363.448 224.538 o
363.901 224.042 o
364.354 223.547 o
364.807 223.052 o
365.26 222.556 o
365.713 222.061 o
366.166 221.565 o
366.619 221.07 o
367.072 220.574 o
367.525 220.078 o
367.977 219.582 o
368.43 219.086 o
368.883 218.59 o
369.336 218.094 o
369.789 217.598 o
370.242 217.102 o
370.695 216.605 o
371.148 216.109 o
371.601 215.612 o
372.054 215.116 o
372.507 214.619 o
372.96 214.122 o
373.412 213.626 o
373.865 213.129 o
374.318 212.632 o
374.771 212.135 o
375.224 211.638 o
375.677 211.141 o
376.13 210.644 o
376.583 210.147 o
377.036 209.649 o
377.489 209.152 o
377.942 208.655 o
378.395 208.158 o
378.848 207.66 o
379.3 207.162 o
379.753 206.665 o
380.206 206.167 o
380.659 205.669 o
381.112 205.171 o
381.565 204.673 o
382.018 204.175 o
382.471 203.677 o
382.924 203.18 o
383.377 202.682 o
383.83 202.184 o
384.283 201.685 o
384.736 201.187 o
385.188 200.689 o
385.641 200.19 o
386.094 199.692 o
386.547 199.193 o
387 198.695 o
387.453 198.196 o
387.906 197.698 o
388.359 197.2 o
388.812 196.701 o
389.265 196.202 o
389.718 195.703 o
390.171 195.204 o
390.624 194.705 o
391.076 194.207 o
391.529 193.708 o
391.982 193.208 o
392.435 192.709 o
392.888 192.21 o
393.341 191.712 o
393.794 191.212 o
394.247 190.713 o
394.7 190.214 o
395.153 189.714 o
395.606 189.215 o
396.059 188.716 o
396.511 188.216 o
396.964 187.717 o
397.417 187.217 o
397.87 186.718 o
398.323 186.218 o
398.776 185.718 o
399.229 185.219 o
399.682 184.719 o
400.135 184.22 o
400.588 183.72 o
401.041 183.22 o
401.494 182.72 o
401.947 182.22 o
402.399 181.72 o
402.852 181.22 o
403.305 180.72 o
403.758 180.22 o
404.211 179.72 o
404.664 179.22 o
405.117 178.72 o
405.57 178.22 o
406.023 177.719 o
406.476 177.22 o
406.929 176.719 o
407.382 176.219 o
407.835 175.719 o
408.287 175.218 o
408.74 174.718 o
409.193 174.217 o
409.646 173.717 o
410.099 173.216 o
410.552 172.716 o
411.005 172.215 o
411.458 171.715 o
411.911 171.214 o
412.364 170.713 o
412.817 170.213 o
413.27 169.712 o
413.723 169.211 o
414.175 168.711 o
414.628 168.21 o
415.081 167.709 o
415.534 167.209 o
415.987 166.708 o
416.44 166.207 o
416.893 165.706 o
417.346 165.205 o
417.799 164.704 o
418.252 164.203 o
418.705 163.702 o
419.158 163.201 o
419.61 162.7 o
420.063 162.199 o
420.516 161.698 o
420.969 161.197 o
421.422 160.695 o
421.875 160.194 o
422.328 159.693 o
422.781 159.192 o
423.234 158.691 o
423.687 158.189 o
424.14 157.688 o
424.593 157.187 o
425.046 156.686 o
425.498 156.184 o
425.951 155.683 o
426.404 155.182 o
426.857 154.68 o
427.31 154.179 o
427.763 153.677 o
428.216 153.176 o
428.669 152.674 o
429.122 152.173 o
429.575 151.671 o
430.028 151.17 o
430.481 150.668 o
430.934 150.167 o
431.386 149.665 o
431.839 149.163 o
432.292 148.662 o
432.745 148.16 o
433.198 147.658 o
433.651 147.157 o
434.104 146.655 o
434.557 146.153 o
435.01 145.651 o
435.463 145.15 o
435.916 144.648 o
436.369 144.146 o
436.822 143.645 o
437.274 143.143 o
437.727 142.641 o
438.18 142.139 o
438.633 141.637 o
439.086 141.135 o
439.539 140.633 o
439.992 140.131 o
440.445 139.629 o
440.898 139.127 o
441.351 138.626 o
441.804 138.124 o
442.257 137.622 o
442.709 137.119 o
443.162 136.617 o
443.615 136.115 o
444.068 135.613 o
444.521 135.111 o
444.974 134.609 o
445.427 134.107 o
445.88 133.605 o
446.333 133.103 o
446.786 132.601 o
447.239 132.098 o
447.692 131.596 o
448.145 131.094 o
448.597 130.592 o
449.05 130.09 o
449.503 129.587 o
449.956 129.085 o
450.409 128.583 o
450.862 128.081 o
451.315 127.579 o
451.768 127.077 o
452.221 126.574 o
452.674 126.072 o
453.127 125.57 o
453.58 125.067 o
454.033 124.565 o
454.485 124.063 o
454.938 123.56 o
455.391 123.058 o
455.844 122.555 o
456.297 122.053 o
456.75 121.551 o
457.203 121.048 o
457.656 120.546 o
458.109 120.043 o
458.562 119.541 o
459.015 119.038 o
459.468 118.536 o
459.921 118.033 o
460.373 117.531 o
460.826 117.029 o
461.279 116.526 o
461.732 116.023 o
462.185 115.521 o
462.638 115.018 o
463.091 114.516 o
463.544 114.013 o
463.997 113.511 o
464.45 113.008 o
464.903 112.506 o
465.356 112.003 o
465.809 111.5 o
466.261 110.998 o
466.714 110.495 o
467.167 109.992 o
467.62 109.49 o
468.073 108.987 o
468.526 108.485 o
468.979 107.982 o
469.432 107.48 o
469.885 106.977 o
470.338 106.474 o
470.791 105.972 o
471.244 105.469 o
471.696 104.966 o
472.149 104.464 o
472.602 103.961 o
473.055 103.458 o
473.508 102.955 o
473.961 102.453 o
474.414 101.95 o
474.867 101.447 o
475.32 100.944 o
475.773 100.442 o
476.226 99.9387 o
476.679 99.4357 o
477.132 98.9332 o
477.584 98.4302 o
478.037 97.9277 o
478.49 97.4247 o
478.943 96.9217 o
479.396 96.4192 o
479.849 95.9162 o
480.302 95.4132 o
480.755 94.9108 o
481.208 94.4077 o
481.661 93.9048 o
482.114 93.402 o
482.567 92.8991 o
483.02 92.3963 o
483.472 91.8934 o
483.925 91.3905 o
484.378 90.8876 o
484.831 90.3847 o
485.284 89.8818 o
485.737 89.3789 o
486.19 88.876 o
486.643 88.3731 o
487.096 87.8701 o
487.549 87.3672 o
488.002 86.8643 o
488.455 86.3614 o
488.908 85.8584 o
489.36 85.3555 o
489.813 84.8525 o
490.266 84.3495 o
490.719 83.8466 o
491.172 83.3436 o
491.625 82.8407 o
492.078 82.3377 o
492.531 81.8347 o
492.984 81.3317 o
493.437 80.8287 o
493.89 80.3257 o
494.343 79.8227 o
494.795 79.3197 o
495.248 78.8167 o
495.701 78.3137 o
496.154 77.8106 o
496.607 77.3076 o
497.06 76.8046 o
497.513 76.3016 o
497.966 75.7985 o
498.419 75.2955 o
498.872 74.7924 o
499.325 74.2894 o
499.778 73.7863 o
500.231 73.2833 o
500.683 72.7802 o
501.136 72.2771 o
501.589 71.7741 o
502.042 71.271 o
502.495 70.7679 o
502.948 70.2648 o
503.401 69.7617 o
503.854 69.2587 o
504.307 68.7555 o
504.76 68.2524 o
505.213 67.7493 o
505.666 67.2463 o
506.119 66.7432 o
506.571 66.24 o
507.024 65.7369 o
507.477 65.2338 o
507.93 64.7307 o
508.383 64.2275 o
508.836 63.7244 o
509.289 63.2213 o
509.742 62.7181 o
510.195 62.215 o
510.648 61.7119 o
511.101 61.2087 o
511.554 60.7055 o
512.007 60.2024 o
512.459 59.6993 o
512.912 59.1961 o
513.365 58.6929 o
513.818 58.1898 o
514.271 57.6866 o
514.724 57.1834 o
515.177 56.6802 o
515.63 56.177 o
516.083 55.6739 o
516.536 55.1707 o
516.989 54.6675 o
517.442 54.1643 o
517.894 53.6611 o
518.347 53.1579 o
518.8 52.6547 o
519.253 52.1516 o
519.706 51.6484 o
520.159 51.1451 o
520.612 50.6419 o
521.065 50.1387 o
521.518 49.6355 o
521.971 49.1323 o
522.424 48.6291 o
522.877 48.1259 o
523.33 47.6226 o
523.782 47.1194 o
524.235 46.6162 o
524.688 46.1129 o
525.141 45.6097 o
525.594 45.1065 o
526.047 44.6032 o
526.5 44.1 o
grestore
1.000 setlinewidth
2 setlinecap
1.000 0.000 0.000 setrgbcolor
gsave
453.4 352.8 73.12 44.1 clipbox
73.125 44.1 m
78.5601 94.9968 l
83.9951 139.461 l
89.4302 178.219 l
94.8652 211.917 l
99.8474 238.849 l
104.83 262.403 l
109.812 282.929 l
114.794 300.742 l
119.776 316.125 l
124.758 329.331 l
129.74 340.587 l
134.269 349.298 l
138.799 356.701 l
143.328 362.923 l
147.404 367.604 l
151.48 371.493 l
155.557 374.658 l
159.633 377.161 l
163.709 379.06 l
169.144 380.739 l
174.579 381.547 l
180.015 381.58 l
185.45 380.927 l
190.885 379.666 l
197.678 377.337 l
204.472 374.281 l
212.625 369.795 l
220.777 364.557 l
230.289 357.657 l
241.159 348.929 l
253.388 338.263 l
268.334 324.303 l
285.998 306.862 l
309.098 283.023 l
338.99 251.13 l
382.471 203.679 l
461.732 116.024 l
526.047 44.6032 l
526.047 44.6032 l
stroke
grestore
0.500 setlinewidth
0 setlinecap
0.000 setgray
gsave
/o {
gsave
newpath
translate
0 0 m
0 4 l
stroke
grestore
} bind def
73.125 44.1 o
grestore
gsave
/o {
gsave
newpath
translate
0 0 m
0 -4 l
stroke
grestore
} bind def
73.125 396.9 o
grestore
/DejaVuSans findfont
12.000 scalefont
setfont
gsave
64.375000 31.021875 translate
0.000000 rotate
0.000000 0.171875 m /zero glyphshow
7.634766 0.171875 m /period glyphshow
11.449219 0.171875 m /zero glyphshow
grestore
gsave
/o {
gsave
newpath
translate
0 0 m
0 4 l
stroke
grestore
} bind def
163.8 44.1 o
grestore
gsave
/o {
gsave
newpath
translate
0 0 m
0 -4 l
stroke
grestore
} bind def
163.8 396.9 o
grestore
gsave
155.253125 31.021875 translate
0.000000 rotate
0.000000 0.171875 m /zero glyphshow
7.634766 0.171875 m /period glyphshow
11.449219 0.171875 m /two glyphshow
grestore
gsave
/o {
gsave
newpath
translate
0 0 m
0 4 l
stroke
grestore
} bind def
254.475 44.1 o
grestore
gsave
/o {
gsave
newpath
translate
0 0 m
0 -4 l
stroke
grestore
} bind def
254.475 396.9 o
grestore
gsave
245.662500 31.021875 translate
0.000000 rotate
0.000000 0.171875 m /zero glyphshow
7.634766 0.171875 m /period glyphshow
11.449219 0.171875 m /four glyphshow
grestore
gsave
/o {
gsave
newpath
translate
0 0 m
0 4 l
stroke
grestore
} bind def
345.15 44.1 o
grestore
gsave
/o {
gsave
newpath
translate
0 0 m
0 -4 l
stroke
grestore
} bind def
345.15 396.9 o
grestore
gsave
336.384375 31.021875 translate
0.000000 rotate
0.000000 0.171875 m /zero glyphshow
7.634766 0.171875 m /period glyphshow
11.449219 0.171875 m /six glyphshow
grestore
gsave
/o {
gsave
newpath
translate
0 0 m
0 4 l
stroke
grestore
} bind def
435.825 44.1 o
grestore
gsave
/o {
gsave
newpath
translate
0 0 m
0 -4 l
stroke
grestore
} bind def
435.825 396.9 o
grestore
gsave
427.090625 31.021875 translate
0.000000 rotate
0.000000 0.171875 m /zero glyphshow
7.634766 0.171875 m /period glyphshow
11.449219 0.171875 m /eight glyphshow
grestore
gsave
/o {
gsave
newpath
translate
0 0 m
0 4 l
stroke
grestore
} bind def
526.5 44.1 o
grestore
gsave
/o {
gsave
newpath
translate
0 0 m
0 -4 l
stroke
grestore
} bind def
526.5 396.9 o
grestore
gsave
518.007812 31.021875 translate
0.000000 rotate
0.000000 0.171875 m /one glyphshow
7.634766 0.171875 m /period glyphshow
11.449219 0.171875 m /zero glyphshow
grestore
296.633 19.459 m
(x) show
gsave
/o {
gsave
newpath
translate
0 0 m
4 0 l
stroke
grestore
} bind def
73.125 44.1 o
grestore
gsave
/o {
gsave
newpath
translate
0 0 m
-4 0 l
stroke
grestore
} bind def
526.5 44.1 o
grestore
gsave
51.625000 39.560937 translate
0.000000 rotate
0.000000 0.171875 m /zero glyphshow
7.634766 0.171875 m /period glyphshow
11.449219 0.171875 m /zero glyphshow
grestore
gsave
/o {
gsave
newpath
translate
0 0 m
4 0 l
stroke
grestore
} bind def
73.125 94.5 o
grestore
gsave
/o {
gsave
newpath
translate
0 0 m
-4 0 l
stroke
grestore
} bind def
526.5 94.5 o
grestore
gsave
51.937500 89.960938 translate
0.000000 rotate
0.000000 0.171875 m /zero glyphshow
7.634766 0.171875 m /period glyphshow
11.449219 0.171875 m /one glyphshow
grestore
gsave
/o {
gsave
newpath
translate
0 0 m
4 0 l
stroke
grestore
} bind def
73.125 144.9 o
grestore
gsave
/o {
gsave
newpath
translate
0 0 m
-4 0 l
stroke
grestore
} bind def
526.5 144.9 o
grestore
gsave
52.031250 140.360938 translate
0.000000 rotate
0.000000 0.171875 m /zero glyphshow
7.634766 0.171875 m /period glyphshow
11.449219 0.171875 m /two glyphshow
grestore
gsave
/o {
gsave
newpath
translate
0 0 m
4 0 l
stroke
grestore
} bind def
73.125 195.3 o
grestore
gsave
/o {
gsave
newpath
translate
0 0 m
-4 0 l
stroke
grestore
} bind def
526.5 195.3 o
grestore
gsave
51.796875 190.760938 translate
0.000000 rotate
0.000000 0.171875 m /zero glyphshow
7.634766 0.171875 m /period glyphshow
11.449219 0.171875 m /three glyphshow
grestore
gsave
/o {
gsave
newpath
translate
0 0 m
4 0 l
stroke
grestore
} bind def
73.125 245.7 o
grestore
gsave
/o {
gsave
newpath
translate
0 0 m
-4 0 l
stroke
grestore
} bind def
526.5 245.7 o
grestore
gsave
51.500000 241.160938 translate
0.000000 rotate
0.000000 0.171875 m /zero glyphshow
7.634766 0.171875 m /period glyphshow
11.449219 0.171875 m /four glyphshow
grestore
gsave
/o {
gsave
newpath
translate
0 0 m
4 0 l
stroke
grestore
} bind def
73.125 296.1 o
grestore
gsave
/o {
gsave
newpath
translate
0 0 m
-4 0 l
stroke
grestore
} bind def
526.5 296.1 o
grestore
gsave
51.875000 291.560938 translate
0.000000 rotate
0.000000 0.171875 m /zero glyphshow
7.634766 0.171875 m /period glyphshow
11.449219 0.171875 m /five glyphshow
grestore
gsave
/o {
gsave
newpath
translate
0 0 m
4 0 l
stroke
grestore
} bind def
73.125 346.5 o
grestore
gsave
/o {
gsave
newpath
translate
0 0 m
-4 0 l
stroke
grestore
} bind def
526.5 346.5 o
grestore
gsave
51.593750 341.960938 translate
0.000000 rotate
0.000000 0.171875 m /zero glyphshow
7.634766 0.171875 m /period glyphshow
11.449219 0.171875 m /six glyphshow
grestore
gsave
/o {
gsave
newpath
translate
0 0 m
4 0 l
stroke
grestore
} bind def
73.125 396.9 o
grestore
gsave
/o {
gsave
newpath
translate
0 0 m
-4 0 l
stroke
grestore
} bind def
526.5 396.9 o
grestore
gsave
51.859375 392.360938 translate
0.000000 rotate
0.000000 0.171875 m /zero glyphshow
7.634766 0.171875 m /period glyphshow
11.449219 0.171875 m /seven glyphshow
grestore
46.5 217.305 m
gsave
90 rotate
(v) show
grestore
1.000 setlinewidth
2 setlinecap
gsave
73.125 396.9 m
526.5 396.9 l
stroke
grestore
gsave
526.5 44.1 m
526.5 396.9 l
stroke
grestore
gsave
73.125 44.1 m
526.5 44.1 l
stroke
grestore
gsave
73.125 44.1 m
73.125 396.9 l
stroke
grestore
gsave
335.074 343.886 m
516.42 343.886 l
518.34 343.886 519.3 344.846 519.3 346.766 c
519.3 386.82 l
519.3 388.74 518.34 389.7 516.42 389.7 c
335.074 389.7 l
333.154 389.7 332.194 388.74 332.194 386.82 c
332.194 346.766 l
332.194 344.846 333.154 343.886 335.074 343.886 c
cl
gsave
1.000 setgray
fill
grestore
stroke
grestore
0.500 setlinewidth
0 setlinecap
0.000 0.000 1.000 setrgbcolor
gsave
/o {
gsave
newpath
translate
-3 -3 m
3 3 l
-3 3 m
3 -3 l
stroke
grestore
} bind def
342.274 378.339 o
362.434 378.339 o
grestore
0.000 setgray
/DejaVuSans findfont
14.400 scalefont
setfont
378.274 373.096 m
0 0.203 rmoveto
(Numerical Solution) show
1.000 setlinewidth
2 setlinecap
1.000 0.000 0.000 setrgbcolor
gsave
342.274 357.593 m
362.434 357.593 l
stroke
grestore
0.000 setgray
378.274 349.646 m
0 2.906 rmoveto
(Analytical Solution) show

end
showpage
